2018-01-28 19:35:56,302 [9] ERROR HomeTallyAPI.Controllers.UsersController [(null)] - Error in Get Account Type
System.InvalidOperationException: The cast to value type 'System.DateTime' failed because the materialized value is null. Either the result type's generic parameter or the query must use a nullable type.
   at System.Data.Entity.Core.Common.Internal.Materialization.Shaper.ErrorHandlingValueReader`1.GetValue(DbDataReader reader, Int32 ordinal)
   at lambda_method(Closure , Shaper )
   at System.Data.Entity.Core.Common.Internal.Materialization.Coordinator`1.ReadNextElement(Shaper shaper)
   at System.Data.Entity.Core.Common.Internal.Materialization.Shaper`1.SimpleEnumerator.MoveNext()
   at System.Collections.Generic.List`1..ctor(IEnumerable`1 collection)
   at System.Linq.Enumerable.ToList[TSource](IEnumerable`1 source)
   at HTService.Services.UserService.getUser(Nullable`1 id) in C:\Users\Atul Prajapati\Documents\HomeTallyAPI\HomeTallyAPI\HTService\Services\UserService.cs:line 20
   at HomeTallyAPI.Controllers.UsersController.GetUser(Nullable`1 Id) in C:\Users\Atul Prajapati\Documents\HomeTallyAPI\HomeTallyAPI\HomeTallyAPI\Controllers\UsersController.cs:line 23
2018-01-28 19:36:31,143 [13] ERROR HomeTallyAPI.Controllers.UsersController [(null)] - Error in Get Account Type
System.InvalidOperationException: The cast to value type 'System.DateTime' failed because the materialized value is null. Either the result type's generic parameter or the query must use a nullable type.
   at System.Data.Entity.Core.Common.Internal.Materialization.Shaper.ErrorHandlingValueReader`1.GetValue(DbDataReader reader, Int32 ordinal)
   at lambda_method(Closure , Shaper )
   at System.Data.Entity.Core.Common.Internal.Materialization.Coordinator`1.ReadNextElement(Shaper shaper)
   at System.Data.Entity.Core.Common.Internal.Materialization.Shaper`1.SimpleEnumerator.MoveNext()
   at System.Collections.Generic.List`1..ctor(IEnumerable`1 collection)
   at System.Linq.Enumerable.ToList[TSource](IEnumerable`1 source)
   at HTService.Services.UserService.getUser(Nullable`1 id) in C:\Users\Atul Prajapati\Documents\HomeTallyAPI\HomeTallyAPI\HTService\Services\UserService.cs:line 20
   at HomeTallyAPI.Controllers.UsersController.GetUser(Nullable`1 Id) in C:\Users\Atul Prajapati\Documents\HomeTallyAPI\HomeTallyAPI\HomeTallyAPI\Controllers\UsersController.cs:line 23
2018-01-28 20:47:12,317 [5] ERROR HomeTallyAPI.Controllers.UsersController [(null)] - Error in Get Account Type
System.Data.SqlClient.SqlException (0x80131904): The parameterized query '(@Id nvarchar(4000))ht_getUsers @Id' expects the parameter '@Id', which was not supplied.
   at System.Data.SqlClient.SqlConnection.OnError(SqlException exception, Boolean breakConnection, Action`1 wrapCloseInAction)
   at System.Data.SqlClient.SqlInternalConnection.OnError(SqlException exception, Boolean breakConnection, Action`1 wrapCloseInAction)
   at System.Data.SqlClient.TdsParser.ThrowExceptionAndWarning(TdsParserStateObject stateObj, Boolean callerHasConnectionLock, Boolean asyncClose)
   at System.Data.SqlClient.TdsParser.TryRun(RunBehavior runBehavior, SqlCommand cmdHandler, SqlDataReader dataStream, BulkCopySimpleResultSet bulkCopyHandler, TdsParserStateObject stateObj, Boolean& dataReady)
   at System.Data.SqlClient.SqlDataReader.TryConsumeMetaData()
   at System.Data.SqlClient.SqlDataReader.get_MetaData()
   at System.Data.SqlClient.SqlCommand.FinishExecuteReader(SqlDataReader ds, RunBehavior runBehavior, String resetOptionsString, Boolean isInternal, Boolean forDescribeParameterEncryption)
   at System.Data.SqlClient.SqlCommand.RunExecuteReaderTds(CommandBehavior cmdBehavior, RunBehavior runBehavior, Boolean returnStream, Boolean async, Int32 timeout, Task& task, Boolean asyncWrite, Boolean inRetry, SqlDataReader ds, Boolean describeParameterEncryptionRequest)
   at System.Data.SqlClient.SqlCommand.RunExecuteReader(CommandBehavior cmdBehavior, RunBehavior runBehavior, Boolean returnStream, String method, TaskCompletionSource`1 completion, Int32 timeout, Task& task, Boolean& usedCache, Boolean asyncWrite, Boolean inRetry)
   at System.Data.SqlClient.SqlCommand.RunExecuteReader(CommandBehavior cmdBehavior, RunBehavior runBehavior, Boolean returnStream, String method)
   at System.Data.SqlClient.SqlCommand.ExecuteReader(CommandBehavior behavior, String method)
   at System.Data.SqlClient.SqlCommand.ExecuteDbDataReader(CommandBehavior behavior)
   at System.Data.Common.DbCommand.ExecuteReader(CommandBehavior behavior)
   at System.Data.Entity.Infrastructure.Interception.DbCommandDispatcher.<Reader>b__c(DbCommand t, DbCommandInterceptionContext`1 c)
   at System.Data.Entity.Infrastructure.Interception.InternalDispatcher`1.Dispatch[TTarget,TInterceptionContext,TResult](TTarget target, Func`3 operation, TInterceptionContext interceptionContext, Action`3 executing, Action`3 executed)
   at System.Data.Entity.Infrastructure.Interception.DbCommandDispatcher.Reader(DbCommand command, DbCommandInterceptionContext interceptionContext)
   at System.Data.Entity.Internal.InterceptableDbCommand.ExecuteDbDataReader(CommandBehavior behavior)
   at System.Data.Common.DbCommand.ExecuteReader(CommandBehavior behavior)
   at System.Data.Entity.Core.Objects.ObjectContext.ExecuteStoreQueryInternal[TElement](String commandText, String entitySetName, ExecutionOptions executionOptions, Object[] parameters)
   at System.Data.Entity.Core.Objects.ObjectContext.<>c__DisplayClass65`1.<ExecuteStoreQueryReliably>b__64()
   at System.Data.Entity.Core.Objects.ObjectContext.ExecuteInTransaction[T](Func`1 func, IDbExecutionStrategy executionStrategy, Boolean startLocalTransaction, Boolean releaseConnectionOnSuccess)
   at System.Data.Entity.Core.Objects.ObjectContext.<>c__DisplayClass65`1.<ExecuteStoreQueryReliably>b__63()
   at System.Data.Entity.SqlServer.DefaultSqlExecutionStrategy.Execute[TResult](Func`1 operation)
   at System.Data.Entity.Core.Objects.ObjectContext.ExecuteStoreQueryReliably[TElement](String commandText, String entitySetName, ExecutionOptions executionOptions, Object[] parameters)
   at System.Data.Entity.Core.Objects.ObjectContext.ExecuteStoreQuery[TElement](String commandText, ExecutionOptions executionOptions, Object[] parameters)
   at System.Data.Entity.Internal.InternalContext.<>c__DisplayClass14`1.<ExecuteSqlQuery>b__13()
   at System.Data.Entity.Internal.LazyEnumerator`1.MoveNext()
   at System.Collections.Generic.List`1..ctor(IEnumerable`1 collection)
   at System.Linq.Enumerable.ToList[TSource](IEnumerable`1 source)
   at HTService.Services.UserService.getUser(Nullable`1 id) in C:\Users\Atul Prajapati\Documents\HomeTallyAPI\HomeTallyAPI\HTService\Services\UserService.cs:line 20
   at HomeTallyAPI.Controllers.UsersController.GetUser(Nullable`1 id) in C:\Users\Atul Prajapati\Documents\HomeTallyAPI\HomeTallyAPI\HomeTallyAPI\Controllers\UsersController.cs:line 23
ClientConnectionId:8a714e67-3d90-49f5-ad8c-5bb8795bb5fe
Error Number:8178,State:1,Class:16
2018-01-28 20:51:25,974 [14] ERROR HomeTallyAPI.Controllers.UsersController [(null)] - Error in Get Account Type
System.Data.SqlClient.SqlException (0x80131904): The parameterized query '(@Id int)ht_getUsers @Id' expects the parameter '@Id', which was not supplied.
   at System.Data.SqlClient.SqlConnection.OnError(SqlException exception, Boolean breakConnection, Action`1 wrapCloseInAction)
   at System.Data.SqlClient.TdsParser.ThrowExceptionAndWarning(TdsParserStateObject stateObj, Boolean callerHasConnectionLock, Boolean asyncClose)
   at System.Data.SqlClient.TdsParser.TryRun(RunBehavior runBehavior, SqlCommand cmdHandler, SqlDataReader dataStream, BulkCopySimpleResultSet bulkCopyHandler, TdsParserStateObject stateObj, Boolean& dataReady)
   at System.Data.SqlClient.SqlDataReader.TryConsumeMetaData()
   at System.Data.SqlClient.SqlDataReader.get_MetaData()
   at System.Data.SqlClient.SqlCommand.FinishExecuteReader(SqlDataReader ds, RunBehavior runBehavior, String resetOptionsString, Boolean isInternal, Boolean forDescribeParameterEncryption)
   at System.Data.SqlClient.SqlCommand.RunExecuteReaderTds(CommandBehavior cmdBehavior, RunBehavior runBehavior, Boolean returnStream, Boolean async, Int32 timeout, Task& task, Boolean asyncWrite, Boolean inRetry, SqlDataReader ds, Boolean describeParameterEncryptionRequest)
   at System.Data.SqlClient.SqlCommand.RunExecuteReader(CommandBehavior cmdBehavior, RunBehavior runBehavior, Boolean returnStream, String method, TaskCompletionSource`1 completion, Int32 timeout, Task& task, Boolean& usedCache, Boolean asyncWrite, Boolean inRetry)
   at System.Data.SqlClient.SqlCommand.RunExecuteReader(CommandBehavior cmdBehavior, RunBehavior runBehavior, Boolean returnStream, String method)
   at System.Data.SqlClient.SqlCommand.ExecuteReader(CommandBehavior behavior, String method)
   at System.Data.Entity.Infrastructure.Interception.InternalDispatcher`1.Dispatch[TTarget,TInterceptionContext,TResult](TTarget target, Func`3 operation, TInterceptionContext interceptionContext, Action`3 executing, Action`3 executed)
   at System.Data.Entity.Infrastructure.Interception.DbCommandDispatcher.Reader(DbCommand command, DbCommandInterceptionContext interceptionContext)
   at System.Data.Entity.Core.Objects.ObjectContext.ExecuteStoreQueryInternal[TElement](String commandText, String entitySetName, ExecutionOptions executionOptions, Object[] parameters)
   at System.Data.Entity.Core.Objects.ObjectContext.<>c__DisplayClass65`1.<ExecuteStoreQueryReliably>b__64()
   at System.Data.Entity.Core.Objects.ObjectContext.ExecuteInTransaction[T](Func`1 func, IDbExecutionStrategy executionStrategy, Boolean startLocalTransaction, Boolean releaseConnectionOnSuccess)
   at System.Data.Entity.Core.Objects.ObjectContext.<>c__DisplayClass65`1.<ExecuteStoreQueryReliably>b__63()
   at System.Data.Entity.SqlServer.DefaultSqlExecutionStrategy.Execute[TResult](Func`1 operation)
   at System.Data.Entity.Core.Objects.ObjectContext.ExecuteStoreQueryReliably[TElement](String commandText, String entitySetName, ExecutionOptions executionOptions, Object[] parameters)
   at System.Data.Entity.Core.Objects.ObjectContext.ExecuteStoreQuery[TElement](String commandText, ExecutionOptions executionOptions, Object[] parameters)
   at System.Data.Entity.Internal.LazyEnumerator`1.MoveNext()
   at System.Collections.Generic.List`1..ctor(IEnumerable`1 collection)
   at System.Linq.Enumerable.ToList[TSource](IEnumerable`1 source)
   at HTService.Services.UserService.getUser(Nullable`1 id) in C:\Users\Atul Prajapati\Documents\HomeTallyAPI\HomeTallyAPI\HTService\Services\UserService.cs:line 25
   at HomeTallyAPI.Controllers.UsersController.GetUser(Nullable`1 id) in C:\Users\Atul Prajapati\Documents\HomeTallyAPI\HomeTallyAPI\HomeTallyAPI\Controllers\UsersController.cs:line 23
ClientConnectionId:ff724d7c-4b71-4920-a995-0b3e972735ce
Error Number:8178,State:1,Class:16
2018-01-28 21:36:06,034 [19] ERROR HomeTallyAPI.Controllers.UsersController [(null)] - Error in Authenticate
System.NullReferenceException: Object reference not set to an instance of an object.
   at HomeTallyAPI.Controllers.UsersController.Authenticate(FormDataCollection details) in C:\Users\Atul Prajapati\Documents\HomeTallyAPI\HomeTallyAPI\HomeTallyAPI\Controllers\UsersController.cs:line 41
2018-01-28 21:36:24,444 [23] ERROR HomeTallyAPI.Controllers.UsersController [(null)] - Error in Authenticate
System.NullReferenceException: Object reference not set to an instance of an object.
   at HomeTallyAPI.Controllers.UsersController.Authenticate(FormDataCollection details) in C:\Users\Atul Prajapati\Documents\HomeTallyAPI\HomeTallyAPI\HomeTallyAPI\Controllers\UsersController.cs:line 41
2018-01-28 21:36:52,180 [6] ERROR HomeTallyAPI.Controllers.UsersController [(null)] - Error in Authenticate
System.NullReferenceException: Object reference not set to an instance of an object.
   at HomeTallyAPI.Controllers.UsersController.Authenticate(FormDataCollection details) in C:\Users\Atul Prajapati\Documents\HomeTallyAPI\HomeTallyAPI\HomeTallyAPI\Controllers\UsersController.cs:line 41
2018-01-28 21:37:40,352 [19] ERROR HomeTallyAPI.Controllers.UsersController [(null)] - Error in Authenticate
System.NullReferenceException: Object reference not set to an instance of an object.
   at HomeTallyAPI.Controllers.UsersController.Authenticate(FormDataCollection details) in C:\Users\Atul Prajapati\Documents\HomeTallyAPI\HomeTallyAPI\HomeTallyAPI\Controllers\UsersController.cs:line 41
2018-01-30 08:56:28,696 [11] ERROR HomeTallyAPI.Controllers.UsersController [(null)] - Error in Authenticate
System.NullReferenceException: Object reference not set to an instance of an object.
   at HTService.Services.UserService.Register(UsersModel data) in C:\Users\Atul Prajapati\Documents\HomeTallyAPI\HomeTallyAPI\HTService\Services\UserService.cs:line 58
   at HomeTallyAPI.Controllers.UsersController.Register(UsersModel model) in C:\Users\Atul Prajapati\Documents\HomeTallyAPI\HomeTallyAPI\HomeTallyAPI\Controllers\UsersController.cs:line 57
2018-01-30 08:57:55,704 [12] ERROR HomeTallyAPI.Controllers.UsersController [(null)] - Error in Authenticate
System.NullReferenceException: Object reference not set to an instance of an object.
   at HTService.Services.UserService.Register(UsersModel data) in C:\Users\Atul Prajapati\Documents\HomeTallyAPI\HomeTallyAPI\HTService\Services\UserService.cs:line 58
   at HomeTallyAPI.Controllers.UsersController.Register(UsersModel model) in C:\Users\Atul Prajapati\Documents\HomeTallyAPI\HomeTallyAPI\HomeTallyAPI\Controllers\UsersController.cs:line 57
2018-01-30 08:59:21,185 [7] ERROR HomeTallyAPI.Controllers.UsersController [(null)] - Error in Authenticate
System.NullReferenceException: Object reference not set to an instance of an object.
   at HTService.Services.UserService.Register(UsersModel data) in C:\Users\Atul Prajapati\Documents\HomeTallyAPI\HomeTallyAPI\HTService\Services\UserService.cs:line 58
   at HomeTallyAPI.Controllers.UsersController.Register(UsersModel model) in C:\Users\Atul Prajapati\Documents\HomeTallyAPI\HomeTallyAPI\HomeTallyAPI\Controllers\UsersController.cs:line 57
2018-01-30 09:00:02,886 [8] ERROR HomeTallyAPI.Controllers.UsersController [(null)] - Error in Authenticate
System.NullReferenceException: Object reference not set to an instance of an object.
   at HTService.Services.UserService.Register(UsersModel data) in C:\Users\Atul Prajapati\Documents\HomeTallyAPI\HomeTallyAPI\HTService\Services\UserService.cs:line 58
   at HomeTallyAPI.Controllers.UsersController.Register(UsersModel model) in C:\Users\Atul Prajapati\Documents\HomeTallyAPI\HomeTallyAPI\HomeTallyAPI\Controllers\UsersController.cs:line 57
